^C:\USERS\WOLK1\ONEDRIVE\РАБОЧИЙ СТОЛ\NEW FOLDER (3)\JGFJMHGFMHG\JGFJMHGFMHG.CPP
C:\USERS\WOLK1\ONEDRIVE\Рабочий стол\NEW FOLDER (3)\JGFJMHGFMHG\X64\DEBUG\VC143.PDB
C:\USERS\WOLK1\ONEDRIVE\Рабочий стол\NEW FOLDER (3)\JGFJMHGFMHG\X64\DEBUG\VC143.IDB
C:\USERS\WOLK1\ONEDRIVE\Рабочий стол\NEW FOLDER (3)\JGFJMHGFMHG\X64\DEBUG\JGFJMHGFMHG.OBJ
